EESchema Schematic File Version 4
LIBS:ESP8266_2pin-cache
EELAYER 26 0
EELAYER END
$Descr USLetter 11000 8500
encoding utf-8
Sheet 1 1
Title ""
Date ""
Rev ""
Comp ""
Comment1 ""
Comment2 ""
Comment3 ""
Comment4 ""
$EndDescr
$Comp
L ESP8266_2pin-rescue:LM317_3PinPackage-Regulator_Linear U1
U 1 1 5A931941
P 5100 4350
F 0 "U1" H 5100 4592 50  0000 C CNN
F 1 "LM317L" H 5100 4501 50  0000 C CNN
F 2 "Package_TO_SOT_THT:TO-92_Inline_Wide" H 5100 4600 50  0001 C CIN
F 3 "http://www.ti.com/lit/ds/symlink/lm317.pdf" H 5100 4350 50  0001 C CNN
	1    5100 4350
	1    0    0    -1  
$EndComp
$Comp
L ESP8266_2pin-rescue:C-Device C1
U 1 1 5A9319DD
P 4650 4950
F 0 "C1" H 4765 4996 50  0000 L CNN
F 1 "0.1uF" H 4765 4905 50  0000 L CNN
F 2 "Capacitor_THT:CP_Radial_D4.0mm_P2.00mm" H 4688 4800 50  0001 C CNN
F 3 "~" H 4650 4950 50  0001 C CNN
	1    4650 4950
	1    0    0    -1  
$EndComp
$Comp
L ESP8266_2pin-rescue:C-Device C2
U 1 1 5A931A51
P 5550 4950
F 0 "C2" H 5665 4996 50  0000 L CNN
F 1 "1uF" H 5665 4905 50  0000 L CNN
F 2 "Capacitor_THT:CP_Radial_D4.0mm_P2.00mm" H 5588 4800 50  0001 C CNN
F 3 "~" H 5550 4950 50  0001 C CNN
	1    5550 4950
	1    0    0    -1  
$EndComp
$Comp
L ESP8266_2pin-rescue:R-Device R1
U 1 1 5A931ACE
P 5100 4950
F 0 "R1" H 5170 4996 50  0000 L CNN
F 1 "390" H 5170 4905 50  0000 L CNN
F 2 "Resistor_THT:R_Axial_DIN0207_L6.3mm_D2.5mm_P7.62mm_Horizontal" V 5030 4950 50  0001 C CNN
F 3 "~" H 5100 4950 50  0001 C CNN
	1    5100 4950
	1    0    0    -1  
$EndComp
$Comp
L ESP8266_2pin-rescue:R-Device R2
U 1 1 5A931B20
P 5350 4700
F 0 "R2" V 5143 4700 50  0000 C CNN
F 1 "240" V 5234 4700 50  0000 C CNN
F 2 "Resistor_THT:R_Axial_DIN0207_L6.3mm_D2.5mm_P7.62mm_Horizontal" V 5280 4700 50  0001 C CNN
F 3 "~" H 5350 4700 50  0001 C CNN
	1    5350 4700
	0    1    1    0   
$EndComp
Wire Wire Line
	4650 4350 4800 4350
Wire Wire Line
	5100 4650 5100 4700
Wire Wire Line
	5200 4700 5100 4700
Connection ~ 5100 4700
Wire Wire Line
	5100 4700 5100 4800
Wire Wire Line
	5550 4800 5550 4700
Wire Wire Line
	5550 4350 5400 4350
Wire Wire Line
	5500 4700 5550 4700
Connection ~ 5550 4700
Wire Wire Line
	5550 4700 5550 4350
Wire Wire Line
	5550 5100 5100 5100
Connection ~ 5100 5100
Connection ~ 4650 5100
$Comp
L ESP8266_2pin-rescue:SW_Push-Switch RST_1
U 1 1 5A94B64A
P 6600 5400
F 0 "RST_1" H 6600 5685 50  0000 C CNN
F 1 "SW_Push" H 6600 5594 50  0000 C CNN
F 2 "Local:Push_SPST_4pin" H 6600 5600 50  0001 C CNN
F 3 "" H 6600 5600 50  0001 C CNN
	1    6600 5400
	0    -1   -1   0   
$EndComp
$Comp
L ESP8266_2pin-rescue:SW_SPDT-Switch Prog_1
U 1 1 5A94B7FA
P 8000 5400
F 0 "Prog_1" H 8000 5685 50  0000 C CNN
F 1 "SW_SPDT" H 8000 5594 50  0000 C CNN
F 2 "Local:SW_DPDT_6pin" H 8000 5400 50  0001 C CNN
F 3 "" H 8000 5400 50  0001 C CNN
	1    8000 5400
	1    0    0    -1  
$EndComp
Wire Wire Line
	6600 3700 6600 3500
Wire Wire Line
	6500 3700 6500 3500
Text Label 6500 3500 1    50   ~ 0
FTDI_DTR
Text Label 6600 3500 1    50   ~ 0
FTDI_Rx
Wire Wire Line
	6700 3700 6700 3500
Wire Wire Line
	6800 3700 6800 3500
Wire Wire Line
	6900 3700 6900 3500
Wire Wire Line
	7000 3700 7000 3500
Text Label 6700 3500 1    50   ~ 0
FTDI_Tx
Text Label 6800 3500 1    50   ~ 0
FTDI_Vcc
Text Label 6900 3500 1    50   ~ 0
FTDI_CTS
Text Label 7000 3500 1    50   ~ 0
FTDI_GND
NoConn ~ 6500 3900
NoConn ~ 6800 3900
NoConn ~ 6900 3900
$Comp
L ESP8266_2pin-rescue:Conn_02x04_Odd_Even-Connector_Generic J_ESP8266_1
U 1 1 5A95198D
P 7200 4700
F 0 "J_ESP8266_1" H 7250 5017 50  0000 C CNN
F 1 "Conn_02x04_Odd_Even" H 7250 4926 50  0000 C CNN
F 2 "Local:PinSocket_2x04_OddEven_P2.54mm_Vertical" H 7200 4700 50  0001 C CNN
F 3 "~" H 7200 4700 50  0001 C CNN
	1    7200 4700
	-1   0    0    -1  
$EndComp
$Comp
L ESP8266_2pin-rescue:GND-power #PWR0101
U 1 1 5A951CEC
P 7000 4050
F 0 "#PWR0101" H 7000 3800 50  0001 C CNN
F 1 "GND" H 7005 3877 50  0000 C CNN
F 2 "" H 7000 4050 50  0001 C CNN
F 3 "" H 7000 4050 50  0001 C CNN
	1    7000 4050
	1    0    0    -1  
$EndComp
Text Label 5900 4700 0    50   ~ 0
Vcc
$Comp
L ESP8266_2pin-rescue:GND-power #PWR0102
U 1 1 5A953042
P 7800 4600
F 0 "#PWR0102" H 7800 4350 50  0001 C CNN
F 1 "GND" H 7805 4427 50  0000 C CNN
F 2 "" H 7800 4600 50  0001 C CNN
F 3 "" H 7800 4600 50  0001 C CNN
	1    7800 4600
	-1   0    0    1   
$EndComp
Text Label 6600 3900 3    50   ~ 0
ESP_Tx
Text Label 6700 3900 3    50   ~ 0
ESP_Rx
Wire Wire Line
	7000 3900 7000 4050
Text Label 7400 4700 0    50   ~ 10
GPIO_02
Text Label 7400 4800 0    50   ~ 10
GPIO_00
Text Label 7400 4900 0    50   ~ 10
ESP_Rx
Text Label 6900 4600 2    50   ~ 10
ESP_Tx
Text Label 6900 4700 2    50   ~ 10
ChpD
Text Label 6900 4800 2    50   ~ 10
RST
Text Label 6900 4900 2    50   ~ 10
Vcc
$Comp
L ESP8266_2pin-rescue:R-Device R3
U 1 1 5A94D495
P 6450 4700
F 0 "R3" V 6243 4700 50  0000 C CNN
F 1 "10K" V 6334 4700 50  0000 C CNN
F 2 "Resistor_THT:R_Axial_DIN0207_L6.3mm_D2.5mm_P7.62mm_Horizontal" V 6380 4700 50  0001 C CNN
F 3 "~" H 6450 4700 50  0001 C CNN
	1    6450 4700
	0    1    1    0   
$EndComp
Wire Wire Line
	6600 4700 6900 4700
$Comp
L ESP8266_2pin-rescue:GND-power #PWR0103
U 1 1 5A94DA4E
P 7150 5700
F 0 "#PWR0103" H 7150 5450 50  0001 C CNN
F 1 "GND" H 7155 5527 50  0000 C CNN
F 2 "" H 7150 5700 50  0001 C CNN
F 3 "" H 7150 5700 50  0001 C CNN
	1    7150 5700
	1    0    0    -1  
$EndComp
$Comp
L ESP8266_2pin-rescue:R-Device R4
U 1 1 5A94DD43
P 6450 5050
F 0 "R4" V 6243 5050 50  0000 C CNN
F 1 "10K" V 6334 5050 50  0000 C CNN
F 2 "Resistor_THT:R_Axial_DIN0207_L6.3mm_D2.5mm_P7.62mm_Horizontal" V 6380 5050 50  0001 C CNN
F 3 "~" H 6450 5050 50  0001 C CNN
	1    6450 5050
	0    1    1    0   
$EndComp
Wire Wire Line
	6900 4800 6600 4800
Wire Wire Line
	6600 4800 6600 5050
Wire Wire Line
	6300 5050 6300 4700
Wire Wire Line
	7400 4700 8200 4700
Wire Wire Line
	6600 5200 6600 5050
Connection ~ 6600 5050
Wire Wire Line
	6900 4600 6600 4600
Wire Wire Line
	6600 4600 6600 3900
Wire Wire Line
	7800 5400 7800 4800
Wire Wire Line
	7800 4800 7400 4800
Wire Wire Line
	6600 5600 7150 5600
Wire Wire Line
	8200 5600 8200 5500
Wire Wire Line
	7150 5600 7150 5700
Connection ~ 7150 5600
Wire Wire Line
	7150 5600 8200 5600
Wire Wire Line
	8200 5300 8200 4800
Wire Wire Line
	7400 4600 7800 4600
Wire Wire Line
	5550 4700 6300 4700
Connection ~ 6300 4700
$Comp
L ESP8266_2pin-rescue:GND-power #PWR0104
U 1 1 5A96601F
P 4650 5200
F 0 "#PWR0104" H 4650 4950 50  0001 C CNN
F 1 "GND" H 4655 5027 50  0000 C CNN
F 2 "" H 4650 5200 50  0001 C CNN
F 3 "" H 4650 5200 50  0001 C CNN
	1    4650 5200
	1    0    0    -1  
$EndComp
Wire Wire Line
	4650 5200 4650 5100
Wire Wire Line
	5100 5100 4650 5100
$Comp
L ESP8266_2pin-rescue:Barrel_Jack-Connector_Specialized-ESP8266_2pin-rescue J1
U 1 1 5AA5B21C
P 4150 4450
F 0 "J1" H 4228 4775 50  0000 C CNN
F 1 "Barrel_Jack" H 4228 4684 50  0000 C CNN
F 2 "Local:BarrelJack_Horizontal" H 4200 4410 50  0001 C CNN
F 3 "~" H 4200 4410 50  0001 C CNN
	1    4150 4450
	1    0    0    -1  
$EndComp
Wire Wire Line
	4450 4350 4650 4350
Connection ~ 4650 4350
Wire Wire Line
	4450 4450 4450 4550
Wire Wire Line
	4650 4350 4650 4800
Wire Wire Line
	4450 4550 4450 5100
Wire Wire Line
	4450 5100 4650 5100
Connection ~ 4450 4550
$Comp
L ESP8266_2pin-rescue:+VDC-power #PWR03
U 1 1 5AA5F16C
P 4650 4250
F 0 "#PWR03" H 4650 4150 50  0001 C CNN
F 1 "+VDC" H 4650 4525 50  0000 C CNN
F 2 "" H 4650 4250 50  0001 C CNN
F 3 "" H 4650 4250 50  0001 C CNN
	1    4650 4250
	1    0    0    -1  
$EndComp
Wire Wire Line
	4650 4250 4650 4350
$Comp
L ESP8266_2pin-rescue:+VDC-power #PWR01
U 1 1 5AA5F8A5
P 9850 6050
F 0 "#PWR01" H 9850 5950 50  0001 C CNN
F 1 "+VDC" H 9850 6325 50  0000 C CNN
F 2 "" H 9850 6050 50  0001 C CNN
F 3 "" H 9850 6050 50  0001 C CNN
	1    9850 6050
	1    0    0    -1  
$EndComp
$Comp
L ESP8266_2pin-rescue:GND-power #PWR02
U 1 1 5AA5F8CA
P 9850 6200
F 0 "#PWR02" H 9850 5950 50  0001 C CNN
F 1 "GND" H 9855 6027 50  0000 C CNN
F 2 "" H 9850 6200 50  0001 C CNN
F 3 "" H 9850 6200 50  0001 C CNN
	1    9850 6200
	1    0    0    -1  
$EndComp
$Comp
L ESP8266_2pin-rescue:PWR_FLAG-power #FLG0101
U 1 1 5AA5FD0F
P 10150 6050
F 0 "#FLG0101" H 10150 6125 50  0001 C CNN
F 1 "PWR_FLAG" H 10150 6224 50  0000 C CNN
F 2 "" H 10150 6050 50  0001 C CNN
F 3 "" H 10150 6050 50  0001 C CNN
	1    10150 6050
	1    0    0    -1  
$EndComp
$Comp
L ESP8266_2pin-rescue:PWR_FLAG-power #FLG0102
U 1 1 5AA5FD3B
P 10150 6200
F 0 "#FLG0102" H 10150 6275 50  0001 C CNN
F 1 "PWR_FLAG" H 10150 6373 50  0000 C CNN
F 2 "" H 10150 6200 50  0001 C CNN
F 3 "" H 10150 6200 50  0001 C CNN
	1    10150 6200
	-1   0    0    1   
$EndComp
Wire Wire Line
	9850 6050 10150 6050
Wire Wire Line
	9850 6200 10150 6200
$Comp
L ESP8266_2pin-rescue:Conn_01x06-Connector_Generic J_FTDI1232_1
U 1 1 5AA881BC
P 6700 3700
F 0 "J_FTDI1232_1" V 6666 3312 50  0000 R CNN
F 1 "Conn_01x06" V 6575 3312 50  0000 R CNN
F 2 "Connector_PinHeader_2.54mm:PinHeader_1x06_P2.54mm_Horizontal" H 6700 3700 50  0001 C CNN
F 3 "~" H 6700 3700 50  0001 C CNN
	1    6700 3700
	0    -1   -1   0   
$EndComp
$Comp
L ESP8266_2pin-rescue:+VDC-power #PWR0105
U 1 1 5AADD7DE
P 4600 5950
F 0 "#PWR0105" H 4600 5850 50  0001 C CNN
F 1 "+VDC" H 4600 6225 50  0000 C CNN
F 2 "" H 4600 5950 50  0001 C CNN
F 3 "" H 4600 5950 50  0001 C CNN
	1    4600 5950
	0    -1   -1   0   
$EndComp
$Comp
L ESP8266_2pin-rescue:Conn_02x02_Top_Bottom-Connector_Generic J_GPIO_1
U 1 1 5AAE0F6F
P 8400 4700
F 0 "J_GPIO_1" H 8450 4917 50  0000 C CNN
F 1 "Conn_02x02" H 8450 4826 50  0000 C CNN
F 2 "Connector_PinSocket_2.54mm:PinSocket_2x02_P2.54mm_Vertical" H 8400 4700 50  0001 C CNN
F 3 "~" H 8400 4700 50  0001 C CNN
	1    8400 4700
	1    0    0    -1  
$EndComp
Wire Wire Line
	8700 4700 8700 4800
Wire Wire Line
	8700 4800 8700 5600
Wire Wire Line
	8700 5600 8200 5600
Connection ~ 8700 4800
Connection ~ 8200 5600
$Comp
L Connector_Generic:Conn_01x03 J_VDC_OUT_1
U 1 1 5BB92DB8
P 5000 5950
F 0 "J_VDC_OUT_1" H 5079 5992 50  0000 L CNN
F 1 "Conn_01x03" H 5079 5901 50  0000 L CNN
F 2 "Connector_PinHeader_2.54mm:PinHeader_1x03_P2.54mm_Vertical" H 5000 5950 50  0001 C CNN
F 3 "~" H 5000 5950 50  0001 C CNN
	1    5000 5950
	1    0    0    -1  
$EndComp
$Comp
L ESP8266_2pin-rescue:GND-power #PWR0106
U 1 1 5BB97FE2
P 4700 6050
F 0 "#PWR0106" H 4700 5800 50  0001 C CNN
F 1 "GND-power" H 4705 5877 50  0000 C CNN
F 2 "" H 4700 6050 50  0001 C CNN
F 3 "" H 4700 6050 50  0001 C CNN
	1    4700 6050
	1    0    0    -1  
$EndComp
$Comp
L ESP8266_2pin-rescue:GND-power #PWR0107
U 1 1 5BB9803C
P 4700 5850
F 0 "#PWR0107" H 4700 5600 50  0001 C CNN
F 1 "GND-power" H 4705 5677 50  0000 C CNN
F 2 "" H 4700 5850 50  0001 C CNN
F 3 "" H 4700 5850 50  0001 C CNN
	1    4700 5850
	-1   0    0    1   
$EndComp
Wire Wire Line
	4800 5850 4700 5850
Wire Wire Line
	4700 6050 4800 6050
Wire Wire Line
	4600 5950 4800 5950
$EndSCHEMATC
